<svg width="12" height="22" viewBox="0 0 12 22" fill="none" xmlns="http://www.w3.org/2000/svg">
<path d="M11 1L1 11L11 21" stroke="#9DA3B3" stroke-width="2" stroke-linecap="round" stroke-linejoin="round"/>
</svg>
