<svg width="11" height="10" viewBox="0 0 11 10" fill="none" xmlns="http://www.w3.org/2000/svg">
<path d="M5.54518 8.275L5.49935 8.325L5.44893 8.275C3.27185 6.12 1.83268 4.695 1.83268 3.25C1.83268 2.25 2.52018 1.5 3.43685 1.5C4.14268 1.5 4.83018 2 5.0731 2.68H5.9256C6.16852 2 6.85602 1.5 7.56185 1.5C8.47852 1.5 9.16602 2.25 9.16602 3.25C9.16602 4.695 7.72685 6.12 5.54518 8.275ZM7.56185 0.5C6.76435 0.5 5.99893 0.905 5.49935 1.54C4.99977 0.905 4.23435 0.5 3.43685 0.5C2.02518 0.5 0.916016 1.705 0.916016 3.25C0.916016 5.135 2.47435 6.68 4.83477 9.015L5.49935 9.675L6.16393 9.015C8.52435 6.68 10.0827 5.135 10.0827 3.25C10.0827 1.705 8.97352 0.5 7.56185 0.5Z" fill="white"/>
</svg>
